법령상 사무총조사 - EDA II
…
2.4 사무명

코드

law_tbl |> 
  mutate(사무명_구분 = case_when(
    str_detect(사무명, '과[(태료)|(징금)]의?\\s*(부과)?.*(징수)?') ~ '과태료',
    TRUE ~ 사무명
  )) |> 
  count(사무명_구분) |> 
  arrange(desc(n))
#> # A tibble: 54,922 × 2
#>    사무명_구분           n
#>    <chr>             <int>
#>  1 <NA>             801616
#>  2 과태료             1726
#>  3 청문                 55
#>  4 감면된 세금 추징     48
#>  5 실태조사             42
#>  6 수수료 징수          20
#>  7 시정명령             19
#>  8 실태조사 실시        19
#>  9 포상금의 지급        19
#> 10 감독                 18
#> # ℹ 54,912 more rows
